Vinnova - Open Data From The Swedish Innovation Agency • vinnova
…
#> # … with abbreviated variable name ¹​KontaktID
#> 
#> $calls_tbls$links
#> # A tibble: 0 × 1
#> # … with 1 variable: Diarienummer <chr>
#> 
#> $calls_tbls$documents
#> # A tibble: 1 × 8
#>   Diarienummer Titel               Beskr…¹ FileN…² Dokum…³ fileURL Lang  Primary
#>   <chr>        <chr>               <chr>   <chr>   <chr>   <chr>   <chr> <lgl>  
#> 1 2017-02932   Fastställt beslut … Fastst… Fastst… 2017-0… https:… Sv    FALSE  
#> # … with abbreviated variable names ¹​Beskrivning, ²​FileName, ³​DokumentID
#> 
#> $calls_tbls$round_ids
#> # A tibble: 27 × 2
#>    Diarienummer DiarienummerAnsokningsomgang
#>    <chr>        <chr>                       
#>  1 2017-02932   2017-02942                  
#>  2 2017-02932   2018-05355                  
#>  3 2018-02052   2018-03110                  
#>  4 2018-02052   2018-05351                  
#>  5 2018-02052   2020-00225                  
#>  6 2018-02053   2018-02054                  
#>  7 2018-02053   2018-04397                  
#>  8 2018-02053   2018-05372                  
#>  9 2018-02053   2019-05248                  
#> 10 2018-02053   2020-00352                  
#> # … with 17 more rows
…
#>  5 2015-02453   Innovationsforskning             "Innov… Innova… "Innov… <df>   
#>  6 2015-03143   Kompetenscentrumprogrammet       "Kompe… Compet… "Compe… <df>   
#>  7 2016-02206   Next generation Biologics        "Reger… Next g… "Vinno… <df>   
#>  8 2016-03566   Innovationshubbar                "Innov… Innova… "Innov… <df>   
#>  9 2019-00804   Artificiell intelligens          "Artif… Artifi… "Artif… <df>   
#> 10 2019-01294   Innovationsplattformar           "Innov… x       "x"     <df>   
#> 11 2021-00999   Hållbar precisionshälsa i samve… "Hållb… Sustai… "Susta… <df>   
#> 12 2021-01085   Enskilda ansökningar inom preci… "Enski… Indivi… "Indiv… <df>   
#> 13 2021-01086   Internationella samarbeten för … "Inter… Intern… "Inter… <df>   
#> # … with abbreviated variable names ¹​Beskrivning, ²​TitelEngelska,
#> #   ³​BeskrivningEngelska, ⁴​UtlysningDnrLista
#> 
#> $programmes_tbls
#> $programmes_tbls$call_ids
#> # A tibble: 92 × 2
#>    Diarienummer DiarienummerUtlysning
#>    <chr>        <chr>                
#>  1 2009-02191   2004-03144           
#>  2 2009-02191   2007-01574           
#>  3 2009-02191   2008-00400           
#>  4 2009-02191   2009-02405           
#>  5 2009-02191   2010-01385           
#>  6 2009-02191   2013-01962           
#>  7 2009-02191   2014-01280           
#>  8 2009-02191   2014-06304           
#>  9 2009-02191   2018-04520           
#> 10 2012-00741   2012-00911           
#> # … with 82 more rows
…
#>  9 2018-05355   "CV-mall - nation… "CV-ma… mall-f… 2018-0… https:… Sv    FALSE  
#> 10 2018-05355   "Andra utlysninge… "Andra… NFFP 7… 2018-0… https:… Sv    FALSE  
#> 11 2020-00225   "Eureka projectfo… "Eurek… Eureka… 2020-0… https:… En    FALSE  
#> 12 2020-00225   "UK-Sweden Call f… "UK-Sw… UK-Swe… 2020-0… https:… En    FALSE  
#> 13 2020-00225   "UK-Sweden Call f… "UK-Sw… UK-Swe… 2020-0… https:… En    TRUE   
#> 14 2020-00225   "Samarbetsprojekt… "Samar… UK-Swe… 2020-0… https:… Sv    TRUE   
#> # … with abbreviated variable names ¹​Beskrivning, ²​FileName, ³​DokumentID
#> 
#> $rounds_tbls$readings
#> # A tibble: 0 × 1
#> # … with 1 variable: Diarienummer <chr>
#> 
#> 
#> $projects
#> # A tibble: 146 × 20
#>    Diarienummer Ärende…¹ Ärend…² Diari…³ Diari…⁴ Diari…⁵ MalSv…⁶ Resul…⁷ Imple…⁸
#>    <chr>        <chr>    <chr>   <chr>   <chr>   <chr>   <chr>   <chr>   <chr>  
#>  1 2017-03503   E!11654… E!1165… 2016-0… 2014-0… 2009-0… "Syfte… "Proje… "Delta…
#>  2 2017-04846   SUDDEN-… SUDDEN… 2017-0… 2017-0… 2014-0… "Syfte… "Flygi… "Uppla…
#>  3 2017-04864   Passiv … Passiv… 2017-0… 2017-0… 2014-0… "Proje… "Proje… "Proje…
#>  4 2017-04884   Självfö… Self-E… 2017-0… 2017-0… 2014-0… "Målet… "Proje… "Själv…
#>  5 2017-04890   Koncept… Early … 2017-0… 2017-0… 2014-0… "Framt… "Proje… "Proje…
#>  6 2018-02228   EUREKA … EUREKA… 2017-0… 2016-0… 2016-0… "En me… "Det s… "Proje…
#>  7 2018-03119   E!12257… Modula… 2017-0… 2014-0… 2009-0… "Syfte… "Vi fö… "Upplä…
#>  8 2019-00838   Odlande… Farmin… 2017-0… 2013-0… 2011-0… "Ett p… "Odlan… "Proje…
#>  9 2019-02088   Antenns… Antenn… 2018-0… 2014-0… 2014-0… "Proje… "Två a… "Proje…
#> 10 2019-02383   Eureka … Eureka… 2019-0… 2016-0… 2016-0… "IVVES… "IVVES… "IVVES…
#> # … with 136 more rows, 11 more variables: MalEngelska <chr>,
#> #   ResultatEngelska <chr>, ImplementationEngelska <chr>, Projektreferat <chr>,
#> #   BeviljatBidrag <int>, ProjektStart <chr>, ProjektSlut <chr>,
#> #   KoordinatorOrg <chr>, KoordinatorArb <chr>, LankLista <list>, Status <chr>,
#> #   and abbreviated variable names ¹​Ärenderubrik, ²​ÄrenderubrikEngelska,
#> #   ³​DiarienummerAnsokningsomgang, ⁴​DiarienummerUtlysning,
#> #   ⁵​DiarienummerProgram, ⁶​MalSvenska, ⁷​ResultatSvenska, …
#> 
#> $projects_tbls
#> $projects_tbls$links
#> # A tibble: 152 × 3
#>    Diarienummer Beskrivning                                                URL  
#>    <chr>        <chr>                                                      <chr>
#>  1 2017-03503   ""                                                         "htt…
#>  2 2017-04846   ""                                                         ""   
#>  3 2017-04864   ""                                                         ""   
#>  4 2017-04884   ""                                                         ""   
#>  5 2017-04890   ""                                                         ""   
#>  6 2018-02228   "ForSyDe and IDeSyDe -- Tools developed during the projec… "htt…
#>  7 2018-02228   "Eclipse APP4MC -- Tool developed during the project"      "htt…
#>  8 2018-02228   "Panorama Project Main Webpage"                            "htt…
#>  9 2018-02228   "Eclipse Capra -- Tool developed during the project"       "htt…
#> 10 2018-03119   ""                                                         ""   
#> # … with 142 more rows
…
